Ok then forget it.
Now i have 1 dataset filtered cleaned and written by spark (in csv from another 9 gig dataset):
code	creator	last_modified_t	last_modified_datetime	last_modified_by	last_updated_t	last_updated_datetime	product_name	quantity	brands_tags	categories	categories_tags	categories_en	labels	labels_tags	labels_en	countries	countries_tags	countries_en	food_groups	food_groups_tags	food_groups_en	ecoscore_score	unique_scans_n	main_category	main_category_en	energy-kcal_100g	fat_100g	saturated-fat_100g	carbohydrates_100g	sugars_100g	proteins_100g	nutrition-score-fr_100g
3009001317114	ysculo	1644563130	2022-02-11T07:05:30Z	packbot	1705597071	2024-01-18T16:57:51Z	Tuiles noisettes caramel	100 g e	reaute-chocolat,reaute	Snacks, Snacks sucrés, Cacao et dérivés, Chocolats, Chocolats noirs, Chocolats au caramel, Chocolats aux noisettes, Chocolats noirs au caramel, Chocolats noirs aux noisettes	en:snacks,en:sweet-snacks,en:cocoa-and-its-products,en:chocolates,en:dark-chocolates,en:caramel-chocolates,en:chocolates-with-hazelnuts,en:dark-chocolate-with-caramel,en:dark-chocolates-with-hazelnuts	Snacks,Sweet snacks,Cocoa and its products,Chocolates,Dark chocolates,Caramel chocolates,Chocolates with hazelnuts,Dark chocolate with caramel,Dark chocolates with hazelnuts	Point Vert, Fabriqué en France	en:green-dot,en:made-in-france	Green Dot,Made in France	France	en:france	France	en:chocolate-products	en:sugary-snacks,en:chocolate-products	Sugary snacks,Chocolate products	20	1	en:dark-chocolates-with-hazelnuts	Dark chocolates with hazelnuts	549	36.7	19.1	43.6	38.8	6.3	24

here is the path from the dataset:
hadoop@ubuntu:~$ hdfs dfs -ls /user/hadoop/categories/chocolates_1707336841
Found 63 items
-rw-r--r--   3 hadoop supergroup          0 2024-02-07 21:14 /user/hadoop/categories/chocolates_1707336841/_SUCCESS
-rw-r--r--   3 hadoop supergroup        467 2024-02-07 21:14 /user/hadoop/categories/chocolates_1707336841/part-00000-ee6e1655-dc12-4c30-838e-ab8be5aed044-c000.csv
-rw-r--r--   3 hadoop supergroup       2970 2024-02-07 21:14 /user/hadoop/categories/chocolates_1707336841/part-00002-ee6e1655-dc12-4c30-838e-ab8be5aed044-c000.csv
-rw-r--r--   3 hadoop supergroup       3257 2024-02-07 21:14 /user/hadoop/categories/chocolates_1707336841/part-00004-ee6e1655-dc12-4c30-838e-ab8be5aed044-c000.csv


the folder is named chocolates_1707336841 based on the categorie of the product and timestamp epoch of today when it got cleaned and filtered.

What i  want now is a script ( i dont know if it should be 1 or 2 scripts ) that uses the OFF api to get updated/modified products or new ones if they exist .
what i imagine is 2 script:
- fetch the raw data in json format ( response is in json) put it in /user/hadoop/api_off_raw/categories/chocolates.json
- use spark script to read the chocolates.json to :
1. check the timestamp of the hadoop@ubuntu:~$ hdfs dfs -ls /user/hadoop/categories/chocolates_1707336841  and filter out any last_modified_t < timestamp from hdfs folder  
2. Match the format of the csv i showed you before (so change json to csv so that json format matches the csv perfectly) 
then save the  csv file to /user/hadoop/api_off_cleaned


here is a sample of the json output from the api:
{
    "count": 10995,
    "page": 1,
    "page_count": 24,
    "page_size": 24,
    "products": [
      {
        "brands_tags": [
          "milka",
          "mondelez"
        ],
        "carbohydrates_100g": 57,
        "categories": "Snacks, Zoete snacks, Cacao en afgeleide producten, Chocoladeproducten, Melkchocoladen, en:Milk chocolate bar",
        "categories_tags": [
          "en:snacks",
          "en:sweet-snacks",
          "en:cocoa-and-its-products",
          "en:chocolates",
          "en:milk-chocolates",
          "en:milk-chocolate-bar",
          "en:cacao-en-afgeleide-producten",
          "en:chocoladeproducten",
          "en:melkchocoladen",
          "en:zoete-snacks"
        ],
        "code": "3045140105502",
        "countries": "Austria,República Checa,Francia,Alemania,Hungría,España",
        "countries_tags": [
          "en:austria",
          "en:czech-republic",
          "en:france",
          "en:germany",
          "en:hungary",
          "en:spain"
        ],
        "creator": "openfoodfacts-contributors",
        "ecoscore_score": 25,
        "energy-kcal_100g": 539,
        "fat_100g": 31,
        "food_groups": "en:chocolate-products",
        "food_groups_tags": [
          "en:sugary-snacks",
          "en:chocolate-products"
        ],
        "labels": "Cocoa Life, Nutriscore, Nutriscore E, Triman",
        "labels_tags": [
          "en:cocoa-life",
          "en:nutriscore",
          "en:nutriscore-grade-e",
          "fr:triman"
        ],
        "last_modified_by": "prepperapp",
        "last_modified_t": 1706971733,
        "last_updated_t": 1706971733,
        "nutrition-score-fr_100g": 25,
        "proteins_100g": 6.5,
        "quantity": "100g",
        "saturated-fat_100g": 19,
        "sugars_100g": 55,
        "unique_scans_n": 501
      },
      {
        "brands_tags": [
          "ferrero"
        ],
        "carbohydrates_100g": 52.8,
        "categories": "Snacks, Sweet snacks, Cocoa and its products, Confectioneries, Chocolate candies, Bonbons, Liqueur bonbons, Liquor filled chocolate covered cherries, en:chocolates",
        "categories_tags": [
          "en:snacks",
          "en:sweet-snacks",
          "en:cocoa-and-its-products",
          "en:confectioneries",
          "en:chocolate-candies",
          "en:bonbons",
          "en:chocolates",
          "en:liqueur-bonbons",
          "en:liquor-filled-chocolate-covered-cherries"
        ],
        "code": "4008400115535",
        "countries": "France,Germany",
        "countries_tags": [
          "en:france",
          "en:germany"
        ],
        "creator": "kiliweb",
        "energy-kcal_100g": 455,
        "fat_100g": 20.3,
        "food_groups": "en:chocolate-products",
        "food_groups_tags": [
          "en:sugary-snacks",
          "en:chocolate-products"
        ],
        "labels": "",
        "labels_tags": [],
        "last_modified_by": "inf",
        "last_modified_t": 1706341795,
        "last_updated_t": 1706341795,
        "nutrition-score-fr_100g": 25,
        "product_name": "Mon Cherie",
        "proteins_100g": 3,
        "quantity": "189g",
        "saturated-fat_100g": 13.2,
        "sugars_100g": 48.3,
        "unique_scans_n": 12
      }
    ],
    "skip": 0
  }